/home/joel/IdeaProjects/kdg/advanced_programming/reflection/reflection_opgave/src/main/java/be/kdg/distrib/stubFactory/StubInvocationHandler.java
/home/joel/IdeaProjects/kdg/advanced_programming/reflection/reflection_opgave/src/main/java/be/kdg/distrib/communication/MethodCallMessage.java
/home/joel/IdeaProjects/kdg/advanced_programming/reflection/reflection_opgave/src/main/java/be/kdg/distrib/stubFactory/StubFactory.java
/home/joel/IdeaProjects/kdg/advanced_programming/reflection/reflection_opgave/src/main/java/be/kdg/distrib/communication/NetworkAddress.java
/home/joel/IdeaProjects/kdg/advanced_programming/reflection/reflection_opgave/src/main/java/be/kdg/distrib/skeletonFactory/Skeleton.java
/home/joel/IdeaProjects/kdg/advanced_programming/reflection/reflection_opgave/src/main/java/be/kdg/distrib/communication/NameValuePair.java
/home/joel/IdeaProjects/kdg/advanced_programming/reflection/reflection_opgave/src/main/java/be/kdg/distrib/skeletonFactory/SkeletonInvocationHandler.java
/home/joel/IdeaProjects/kdg/advanced_programming/reflection/reflection_opgave/src/main/java/be/kdg/distrib/util/InvokeUtils.java
/home/joel/IdeaProjects/kdg/advanced_programming/reflection/reflection_opgave/src/main/java/be/kdg/distrib/communication/MessageReaderWriter.java
/home/joel/IdeaProjects/kdg/advanced_programming/reflection/reflection_opgave/src/main/java/be/kdg/distrib/communication/MessageManager.java
/home/joel/IdeaProjects/kdg/advanced_programming/reflection/reflection_opgave/src/main/java/be/kdg/distrib/skeletonFactory/SkeletonFactory.java
